<?xml version="1.0" encoding="utf-8"?>
<!-- Generator: Adobe Illustrator 14.0.0, SVG Export Plug-In . SVG Version: 6.00 Build 43363)  -->
<!DOCTYPE svg PUBLIC "-//W3C//DTD SVG 1.1//EN" "http://www.w3.org/Graphics/SVG/1.1/DTD/svg11.dtd">
<svg version="1.1" id="Layer_1" xmlns="http://www.w3.org/2000/svg" xmlns:xlink="http://www.w3.org/1999/xlink" x="0px" y="0px"
	 width="30px" height="30px" viewBox="0 0 30 30" enable-background="new 0 0 30 30" xml:space="preserve">
<path fill="#3D6F55" d="M13.859,19.439l-0.217-6.613l6.095-1.991L13.53,9.341l-0.012-0.308c-0.006-0.206-0.157-0.361-0.388-0.362
	c-0.206,0.008-0.369,0.18-0.362,0.389l0.34,10.384c-1.604,0.059-2.847,0.452-2.847,0.938c0,0.523,1.455,0.95,3.252,0.95
	c1.798,0,3.253-0.425,3.253-0.95C16.768,19.889,15.491,19.49,13.859,19.439z"/>
</svg>
