<?xml version="1.0" encoding="utf-8"?>
<!-- Generator: Adobe Illustrator 15.0.1, SVG Export Plug-In . SVG Version: 6.00 Build 0)  -->
<!DOCTYPE svg PUBLIC "-//W3C//DTD SVG 1.1//EN" "http://www.w3.org/Graphics/SVG/1.1/DTD/svg11.dtd">
<svg version="1.1" id="Layer_1" xmlns="http://www.w3.org/2000/svg" xmlns:xlink="http://www.w3.org/1999/xlink" x="0px" y="0px"
	 width="62px" height="30px" viewBox="0 0 62 30" enable-background="new 0 0 62 30" xml:space="preserve">
<rect x="17" y="7" fill="#099537" stroke="#FFFFFF" stroke-miterlimit="3.8637" width="28" height="16"/>
</svg>
